bash-895
wc-913
bash-895
test_module.sh-914
bash-895
test_module.sh-915
bash-895
test_module.sh-916
bash-895
dmesg-917
bash-895
grep-919
cat-918
grep-919
cat-918
grep-919
cat-918
grep-919
cat-918
grep-919
cat-918
grep-919
cat-918
grep-919
cat-918
grep-919
cat-918
grep-919
cat-918
grep-919
cat-918
grep-919
cat-918
grep-919
cat-918
grep-919
cat-918
grep-919
cat-918
grep-919
cat-918
grep-919
cat-918
grep-919
cat-918
grep-919
cat-918
grep-919
cat-918
grep-919
cat-918
grep-919
cat-918
grep-919
cat-918
grep-919
cat-918
grep-919
cat-918
grep-919
cat-918
grep-919
cat-918
grep-919
cat-918
grep-919
cat-918
grep-919
cat-918
grep-919
cat-918
grep-919
cat-918
grep-919
cat-918
grep-919
cat-918
grep-919
cat-918
grep-919
cat-918
grep-919
cat-918
grep-919
cat-918
grep-919
cat-918
grep-919
cat-918
grep-919
cat-918
grep-919
cat-918
grep-919
cat-918
grep-919
cat-918
grep-919
cat-918
grep-919
cat-918
grep-919
cat-918
grep-919
cat-918
grep-919
cat-918
grep-919
cat-918
grep-919
cat-918
grep-919
cat-918
grep-919
cat-918
grep-919
cat-918
grep-919
bash-895
grep-921
cat-920
grep-921
cat-920
grep-921
cat-920
grep-921
cat-920
grep-921
cat-920
grep-921
cat-920
grep-921
cat-920
grep-921
cat-920
grep-921
cat-920
grep-921
cat-920
grep-921
cat-920
grep-921
cat-920
grep-921
cat-920
grep-921
cat-920
grep-921
cat-920
grep-921
cat-920
grep-921
cat-920
grep-921
cat-920
grep-921
cat-920
grep-921
cat-920
grep-921
cat-920
grep-921
cat-920
grep-921
cat-920
grep-921
cat-920
grep-921
cat-920
grep-921
cat-920
grep-921
cat-920
grep-921
cat-920
grep-921
cat-920
grep-921
cat-920
grep-921
cat-920
grep-921
cat-920
grep-921
cat-920
grep-921
cat-920
grep-921
cat-920
grep-921
cat-920
grep-921
cat-920
grep-921
cat-920
grep-921
cat-920
grep-921
cat-920
grep-921
cat-920
grep-921
cat-920
grep-921
cat-920
grep-921
cat-920
grep-921
cat-920
grep-921
cat-920
grep-921
cat-920
grep-921
cat-920
grep-921
cat-920
grep-921
cat-920
grep-921
cat-920
grep-921
cat-920
grep-921
cat-920
grep-921
cat-920
grep-921
cat-920
grep-921
cat-920
grep-921
bash-895
grep-923
cat-922
grep-923
cat-922
grep-923
cat-922
grep-923
cat-922
grep-923
cat-922
grep-923
cat-922
grep-923
cat-922
grep-923
cat-922
grep-923
cat-922
grep-923
cat-922
grep-923
cat-922
grep-923
cat-922
grep-923
cat-922
grep-923
cat-922
grep-923
cat-922
grep-923
cat-922
grep-923
cat-922
grep-923
cat-922
grep-923
cat-922
grep-923
cat-922
grep-923
cat-922
grep-923
cat-922
grep-923
cat-922
grep-923
cat-922
grep-923
cat-922
grep-923
cat-922
grep-923
cat-922
grep-923
cat-922
grep-923
cat-922
grep-923
cat-922
grep-923
cat-922
grep-923
cat-922
grep-923
cat-922
grep-923
cat-922
grep-923
cat-922
grep-923
cat-922
grep-923
cat-922
grep-923
cat-922
grep-923
cat-922
grep-923
cat-922
grep-923
cat-922
grep-923
cat-922
grep-923
cat-922
grep-923
cat-922
grep-923
cat-922
grep-923
cat-922
grep-923
cat-922
grep-923
cat-922
grep-923
cat-922
grep-923
cat-922
grep-923
cat-922
grep-923
cat-922
grep-923
cat-922
grep-923
cat-922
grep-923
cat-922
grep-923
cat-922
grep-923
cat-922
grep-923
cat-922
grep-923
cat-922
grep-923
cat-922
grep-923
cat-922
grep-923
bash-895
grep-925
cat-924
grep-925
cat-924
grep-925
cat-924
grep-925
cat-924
grep-925
cat-924
grep-925
cat-924
grep-925
cat-924
grep-925
cat-924
grep-925
cat-924
grep-925
cat-924
grep-925
cat-924
grep-925
cat-924
grep-925
cat-924
grep-925
cat-924
grep-925
cat-924
grep-925
cat-924
grep-925
cat-924
grep-925
cat-924
grep-925
cat-924
grep-925
cat-924
grep-925
cat-924
grep-925
cat-924
grep-925
cat-924
grep-925
cat-924
grep-925
cat-924
grep-925
cat-924
grep-925
cat-924
grep-925
cat-924
grep-925
cat-924
grep-925
cat-924
grep-925
cat-924
grep-925
cat-924
grep-925
cat-924
grep-925
cat-924
grep-925
cat-924
grep-925
cat-924
grep-925
cat-924
grep-925
cat-924
grep-925
cat-924
grep-925
cat-924
grep-925
cat-924
grep-925
cat-924
grep-925
cat-924
grep-925
cat-924
grep-925
cat-924
grep-925
cat-924
grep-925
cat-924
grep-925
cat-924
grep-925
cat-924
grep-925
cat-924
grep-925
cat-924
grep-925
cat-924
grep-925
cat-924
grep-925
cat-924
grep-925
