# tracer: nop
#
# entries-in-buffer/entries-written: 12/12   #P:8
#
#                              _-----=> irqs-off
#                             / _----=> need-resched
#                            | / _---=> hardirq/softirq
#                            || / _--=> preempt-depth
#                            ||| /     delay
#           TASK-PID   CPU#  ||||    TIMESTAMP  FUNCTION
#              | |       |   ||||       |         |
            ping-1242  [004] ..s.  6158.093580: netif_rx: dev=lo skbaddr=ffffffc07b9a8c00 len=84
            ping-1242  [004] ..s.  6158.093591: <stack trace>
 => netif_rx_internal+0xc8/0x154 <ffffffc0008090b0>
 => netif_rx+0x24/0x9c <ffffffc000809160>
 => loopback_xmit+0x68/0xcc <ffffffc000681cc4>
 => dev_hard_start_xmit+0x250/0x3f0 <ffffffc000810624>
 => __dev_queue_xmit+0x4f0/0x594 <ffffffc000810e40>
 => dev_queue_xmit+0x24/0x30 <ffffffc000810f08>
 => ip_finish_output2+0x1a8/0x390 <ffffffc000854760>
 => ip_finish_output+0x188/0x218 <ffffffc000856350>
 => ip_output+0xac/0x130 <ffffffc000856e34>
 => ip_local_out+0x58/0x68 <ffffffc0008565cc>
 => ip_send_skb+0x30/0x84 <ffffffc0008577f8>
 => ip_push_pending_frames+0x40/0x5c <ffffffc00085788c>
 => raw_sendmsg+0x5b8/0x824 <ffffffc00087efc8>
 => inet_sendmsg+0x98/0xd8 <ffffffc00088dd14>
 => sock_sendmsg+0x54/0x60 <ffffffc0007ef27c>
 => ___sys_sendmsg+0x25c/0x270 <ffffffc0007efd4c>
 => __sys_sendmsg+0x64/0xb0 <ffffffc0007f0fb4>
 => SyS_sendmsg+0x34/0x48 <ffffffc0007f1034>
 => el0_svc_naked+0x24/0x28 <ffffffc000085c70>
            ping-1242  [004] ..s1  6158.093630: netif_rx: dev=lo skbaddr=ffffffc07b9a8d00 len=84
            ping-1242  [004] ..s1  6158.093633: <stack trace>
 => netif_rx_internal+0xc8/0x154 <ffffffc0008090b0>
 => netif_rx+0x24/0x9c <ffffffc000809160>
 => loopback_xmit+0x68/0xcc <ffffffc000681cc4>
 => dev_hard_start_xmit+0x250/0x3f0 <ffffffc000810624>
 => __dev_queue_xmit+0x4f0/0x594 <ffffffc000810e40>
 => dev_queue_xmit+0x24/0x30 <ffffffc000810f08>
 => ip_finish_output2+0x1a8/0x390 <ffffffc000854760>
 => ip_finish_output+0x188/0x218 <ffffffc000856350>
 => ip_output+0xac/0x130 <ffffffc000856e34>
 => ip_local_out+0x58/0x68 <ffffffc0008565cc>
 => ip_send_skb+0x30/0x84 <ffffffc0008577f8>
 => ip_push_pending_frames+0x40/0x5c <ffffffc00085788c>
 => icmp_push_reply+0x10c/0x14c <ffffffc000888194>
 => icmp_reply.constprop.19+0x1fc/0x218 <ffffffc000888ff4>
 => icmp_echo.part.18+0x64/0x84 <ffffffc000889074>
 => icmp_echo+0x38/0x48 <ffffffc0008890cc>
 => icmp_rcv+0x29c/0x384 <ffffffc000889580>
 => ip_local_deliver_finish+0x104/0x240 <ffffffc000850d84>
 => ip_local_deliver+0x68/0x110 <ffffffc0008513ac>
 => ip_rcv_finish+0x100/0x33c <ffffffc000850fc0>
 => ip_rcv+0x2b0/0x3ac <ffffffc000851704>
 => __netif_receive_skb_core+0x300/0xa98 <ffffffc00080a6fc>
 => __netif_receive_skb+0x28/0x84 <ffffffc00080d4b0>
 => process_backlog+0xa0/0x16c <ffffffc00080f070>
 => net_rx_action+0x2c8/0x3b0 <ffffffc00080eee8>
 => __do_softirq+0x11c/0x2c4 <ffffffc0000cb6a4>
 => do_softirq+0x64/0x68 <ffffffc0000cb908>
 => __local_bh_enable_ip+0xa0/0xb0 <ffffffc0000cb9ac>
 => ip_finish_output2+0x1d4/0x390 <ffffffc00085478c>
 => ip_finish_output+0x188/0x218 <ffffffc000856350>
 => ip_output+0xac/0x130 <ffffffc000856e34>
 => ip_local_out+0x58/0x68 <ffffffc0008565cc>
 => ip_send_skb+0x30/0x84 <ffffffc0008577f8>
 => ip_push_pending_frames+0x40/0x5c <ffffffc00085788c>
 => raw_sendmsg+0x5b8/0x824 <ffffffc00087efc8>
 => inet_sendmsg+0x98/0xd8 <ffffffc00088dd14>
 => sock_sendmsg+0x54/0x60 <ffffffc0007ef27c>
 => ___sys_sendmsg+0x25c/0x270 <ffffffc0007efd4c>
 => __sys_sendmsg+0x64/0xb0 <ffffffc0007f0fb4>
 => SyS_sendmsg+0x34/0x48 <ffffffc0007f1034>
 => el0_svc_naked+0x24/0x28 <ffffffc000085c70>
            ping-1242  [004] ..s.  6159.092578: netif_rx: dev=lo skbaddr=ffffffc07b9a9f00 len=84
            ping-1242  [004] ..s.  6159.092588: <stack trace>
 => netif_rx_internal+0xc8/0x154 <ffffffc0008090b0>
 => netif_rx+0x24/0x9c <ffffffc000809160>
 => loopback_xmit+0x68/0xcc <ffffffc000681cc4>
 => dev_hard_start_xmit+0x250/0x3f0 <ffffffc000810624>
 => __dev_queue_xmit+0x4f0/0x594 <ffffffc000810e40>
 => dev_queue_xmit+0x24/0x30 <ffffffc000810f08>
 => ip_finish_output2+0x1a8/0x390 <ffffffc000854760>
 => ip_finish_output+0x188/0x218 <ffffffc000856350>
 => ip_output+0xac/0x130 <ffffffc000856e34>
 => ip_local_out+0x58/0x68 <ffffffc0008565cc>
 => ip_send_skb+0x30/0x84 <ffffffc0008577f8>
 => ip_push_pending_frames+0x40/0x5c <ffffffc00085788c>
 => raw_sendmsg+0x5b8/0x824 <ffffffc00087efc8>
 => inet_sendmsg+0x98/0xd8 <ffffffc00088dd14>
 => sock_sendmsg+0x54/0x60 <ffffffc0007ef27c>
 => ___sys_sendmsg+0x25c/0x270 <ffffffc0007efd4c>
 => __sys_sendmsg+0x64/0xb0 <ffffffc0007f0fb4>
 => SyS_sendmsg+0x34/0x48 <ffffffc0007f1034>
 => el0_svc_naked+0x24/0x28 <ffffffc000085c70>
            ping-1242  [004] ..s1  6159.092624: netif_rx: dev=lo skbaddr=ffffffc07b9a9100 len=84
            ping-1242  [004] ..s1  6159.092627: <stack trace>
 => netif_rx_internal+0xc8/0x154 <ffffffc0008090b0>
 => netif_rx+0x24/0x9c <ffffffc000809160>
 => loopback_xmit+0x68/0xcc <ffffffc000681cc4>
 => dev_hard_start_xmit+0x250/0x3f0 <ffffffc000810624>
 => __dev_queue_xmit+0x4f0/0x594 <ffffffc000810e40>
 => dev_queue_xmit+0x24/0x30 <ffffffc000810f08>
 => ip_finish_output2+0x1a8/0x390 <ffffffc000854760>
 => ip_finish_output+0x188/0x218 <ffffffc000856350>
 => ip_output+0xac/0x130 <ffffffc000856e34>
 => ip_local_out+0x58/0x68 <ffffffc0008565cc>
 => ip_send_skb+0x30/0x84 <ffffffc0008577f8>
 => ip_push_pending_frames+0x40/0x5c <ffffffc00085788c>
 => icmp_push_reply+0x10c/0x14c <ffffffc000888194>
 => icmp_reply.constprop.19+0x1fc/0x218 <ffffffc000888ff4>
 => icmp_echo.part.18+0x64/0x84 <ffffffc000889074>
 => icmp_echo+0x38/0x48 <ffffffc0008890cc>
 => icmp_rcv+0x29c/0x384 <ffffffc000889580>
 => ip_local_deliver_finish+0x104/0x240 <ffffffc000850d84>
 => ip_local_deliver+0x68/0x110 <ffffffc0008513ac>
 => ip_rcv_finish+0x100/0x33c <ffffffc000850fc0>
 => ip_rcv+0x2b0/0x3ac <ffffffc000851704>
 => __netif_receive_skb_core+0x300/0xa98 <ffffffc00080a6fc>
 => __netif_receive_skb+0x28/0x84 <ffffffc00080d4b0>
 => process_backlog+0xa0/0x16c <ffffffc00080f070>
 => net_rx_action+0x2c8/0x3b0 <ffffffc00080eee8>
 => __do_softirq+0x11c/0x2c4 <ffffffc0000cb6a4>
 => do_softirq+0x64/0x68 <ffffffc0000cb908>
 => __local_bh_enable_ip+0xa0/0xb0 <ffffffc0000cb9ac>
 => ip_finish_output2+0x1d4/0x390 <ffffffc00085478c>
 => ip_finish_output+0x188/0x218 <ffffffc000856350>
 => ip_output+0xac/0x130 <ffffffc000856e34>
 => ip_local_out+0x58/0x68 <ffffffc0008565cc>
 => ip_send_skb+0x30/0x84 <ffffffc0008577f8>
 => ip_push_pending_frames+0x40/0x5c <ffffffc00085788c>
 => raw_sendmsg+0x5b8/0x824 <ffffffc00087efc8>
 => inet_sendmsg+0x98/0xd8 <ffffffc00088dd14>
 => sock_sendmsg+0x54/0x60 <ffffffc0007ef27c>
 => ___sys_sendmsg+0x25c/0x270 <ffffffc0007efd4c>
 => __sys_sendmsg+0x64/0xb0 <ffffffc0007f0fb4>
 => SyS_sendmsg+0x34/0x48 <ffffffc0007f1034>
 => el0_svc_naked+0x24/0x28 <ffffffc000085c70>
            ping-1242  [004] ..s.  6160.091573: netif_rx: dev=lo skbaddr=ffffffc07b9a9f00 len=84
            ping-1242  [004] ..s.  6160.091582: <stack trace>
 => netif_rx_internal+0xc8/0x154 <ffffffc0008090b0>
 => netif_rx+0x24/0x9c <ffffffc000809160>
 => loopback_xmit+0x68/0xcc <ffffffc000681cc4>
 => dev_hard_start_xmit+0x250/0x3f0 <ffffffc000810624>
 => __dev_queue_xmit+0x4f0/0x594 <ffffffc000810e40>
 => dev_queue_xmit+0x24/0x30 <ffffffc000810f08>
 => ip_finish_output2+0x1a8/0x390 <ffffffc000854760>
 => ip_finish_output+0x188/0x218 <ffffffc000856350>
 => ip_output+0xac/0x130 <ffffffc000856e34>
 => ip_local_out+0x58/0x68 <ffffffc0008565cc>
 => ip_send_skb+0x30/0x84 <ffffffc0008577f8>
 => ip_push_pending_frames+0x40/0x5c <ffffffc00085788c>
 => raw_sendmsg+0x5b8/0x824 <ffffffc00087efc8>
 => inet_sendmsg+0x98/0xd8 <ffffffc00088dd14>
 => sock_sendmsg+0x54/0x60 <ffffffc0007ef27c>
 => ___sys_sendmsg+0x25c/0x270 <ffffffc0007efd4c>
 => __sys_sendmsg+0x64/0xb0 <ffffffc0007f0fb4>
 => SyS_sendmsg+0x34/0x48 <ffffffc0007f1034>
 => el0_svc_naked+0x24/0x28 <ffffffc000085c70>
            ping-1242  [004] ..s1  6160.091615: netif_rx: dev=lo skbaddr=ffffffc07b9a9100 len=84
            ping-1242  [004] ..s1  6160.091619: <stack trace>
 => netif_rx_internal+0xc8/0x154 <ffffffc0008090b0>
 => netif_rx+0x24/0x9c <ffffffc000809160>
 => loopback_xmit+0x68/0xcc <ffffffc000681cc4>
 => dev_hard_start_xmit+0x250/0x3f0 <ffffffc000810624>
 => __dev_queue_xmit+0x4f0/0x594 <ffffffc000810e40>
 => dev_queue_xmit+0x24/0x30 <ffffffc000810f08>
 => ip_finish_output2+0x1a8/0x390 <ffffffc000854760>
 => ip_finish_output+0x188/0x218 <ffffffc000856350>
 => ip_output+0xac/0x130 <ffffffc000856e34>
 => ip_local_out+0x58/0x68 <ffffffc0008565cc>
 => ip_send_skb+0x30/0x84 <ffffffc0008577f8>
 => ip_push_pending_frames+0x40/0x5c <ffffffc00085788c>
 => icmp_push_reply+0x10c/0x14c <ffffffc000888194>
 => icmp_reply.constprop.19+0x1fc/0x218 <ffffffc000888ff4>
 => icmp_echo.part.18+0x64/0x84 <ffffffc000889074>
 => icmp_echo+0x38/0x48 <ffffffc0008890cc>
 => icmp_rcv+0x29c/0x384 <ffffffc000889580>
 => ip_local_deliver_finish+0x104/0x240 <ffffffc000850d84>
 => ip_local_deliver+0x68/0x110 <ffffffc0008513ac>
 => ip_rcv_finish+0x100/0x33c <ffffffc000850fc0>
 => ip_rcv+0x2b0/0x3ac <ffffffc000851704>
 => __netif_receive_skb_core+0x300/0xa98 <ffffffc00080a6fc>
 => __netif_receive_skb+0x28/0x84 <ffffffc00080d4b0>
 => process_backlog+0xa0/0x16c <ffffffc00080f070>
 => net_rx_action+0x2c8/0x3b0 <ffffffc00080eee8>
 => __do_softirq+0x11c/0x2c4 <ffffffc0000cb6a4>
 => do_softirq+0x64/0x68 <ffffffc0000cb908>
 => __local_bh_enable_ip+0xa0/0xb0 <ffffffc0000cb9ac>
 => ip_finish_output2+0x1d4/0x390 <ffffffc00085478c>
 => ip_finish_output+0x188/0x218 <ffffffc000856350>
 => ip_output+0xac/0x130 <ffffffc000856e34>
 => ip_local_out+0x58/0x68 <ffffffc0008565cc>
 => ip_send_skb+0x30/0x84 <ffffffc0008577f8>
 => ip_push_pending_frames+0x40/0x5c <ffffffc00085788c>
 => raw_sendmsg+0x5b8/0x824 <ffffffc00087efc8>
 => inet_sendmsg+0x98/0xd8 <ffffffc00088dd14>
 => sock_sendmsg+0x54/0x60 <ffffffc0007ef27c>
 => ___sys_sendmsg+0x25c/0x270 <ffffffc0007efd4c>
 => __sys_sendmsg+0x64/0xb0 <ffffffc0007f0fb4>
 => SyS_sendmsg+0x34/0x48 <ffffffc0007f1034>
 => el0_svc_naked+0x24/0x28 <ffffffc000085c70>
