 => kjournald2+0xdc/0x294 [jbd2] <ffffffbffc1b2ba0>
 => journal_submit_commit_record.isra.7+0x6c/0x198 [jbd2] <ffffffbffc1aba04>
 => jbd2_journal_next_log_block+0x74/0x84 [jbd2] <ffffffbffc1b45ac>
 => jbd2_journal_get_descriptor_buffer+0x38/0xd0 [jbd2] <ffffffbffc1b47b8>
 => jbd2_journal_commit_transaction+0x7e4/0x1548 [jbd2] <ffffffbffc1ac314>
 => jbd2_journal_commit_transaction+0x3e0/0x1548 [jbd2] <ffffffbffc1abf10>
 => jbd2_journal_commit_transaction+0x1000/0x1548 [jbd2] <ffffffbffc1acb30>
 => jbd2_journal_bmap+0x34/0xa4 [jbd2] <ffffffbffc1b44c8>
 => hid_report_raw_event+0x134/0x3e0 [hid] <ffffffbffc91c194>
 => hid_irq_in+0x94/0x240 [usbhid] <ffffffbffc973c84>
 => hid_irq_in+0x148/0x240 [usbhid] <ffffffbffc973d38>
 => hid_input_report+0x110/0x1d0 [hid] <ffffffbffc91c550>
 => ext4_map_blocks+0x8c/0x458 [ext4] <ffffffbffc1f3704>
 => ext4_get_block+0x40/0x4c [ext4] <ffffffbffc1f3d20>
 => ext4_find_extent+0x228/0x320 [ext4] <ffffffbffc21f140>
 => ext4_ext_map_blocks+0x7c/0x1140 [ext4] <ffffffbffc2235d4>
 => ext4_bmap+0x80/0xf8 [ext4] <ffffffbffc1f1118>
 => dwc2_host_complete+0x118/0x24c [dwc2] <ffffffbffc4d948c>
 => dwc2_hc_xfercomp_intr+0x420/0x53c [dwc2] <ffffffbffc4dbd04>
 => dwc2_handle_hcd_intr+0x4f0/0xd50 [dwc2] <ffffffbffc4dc9e0>
 => _ext4_get_block+0xd0/0x210 [ext4] <ffffffbffc1f3ba0>
 => _dwc2_hcd_urb_enqueue+0x80/0x54c [dwc2] <ffffffbffc4d8cd4>
 => _dwc2_hcd_urb_enqueue+0x19c/0x54c [dwc2] <ffffffbffc4d8df0>
 => _dwc2_hcd_irq+0x20/0x2c [dwc2] <ffffffbffc4d68a0>
    tmux: server-869   [003] ....  2335.703141: <stack trace>
    tmux: server-869   [003] ....  2335.703138: kmalloc: call_site=ffffffc0003a483c ptr=ffffffc06e53d780 bytes_req=2 bytes_alloc=128 gfp_flags=GFP_KERNEL|GFP_ZERO
    tmux: server-869   [003] ....  2335.202380: <stack trace>
    tmux: server-869   [003] ....  2335.202376: kmalloc: call_site=ffffffc0003a483c ptr=ffffffc06e53d780 bytes_req=2 bytes_alloc=128 gfp_flags=GFP_KERNEL|GFP_ZERO
