root@linaro-alip:~# lkvm run
  # lkvm run -k /boot/vmlinuz-4.4.0-135-arm64 -m 704 -c 8 --name guest-1224
  Info: Loaded kernel to 0x80080000 (15869952 bytes)
  Info: Placing fdt at 0x8fe00000 - 0x8fffffff
  Info: virtio-mmio.devices=0x200@0x10000:36

  Info: virtio-mmio.devices=0x200@0x10200:37

  Info: virtio-mmio.devices=0x200@0x10400:38

[    0.000000] Booting Linux on physical CPU 0x0
[    0.000000] Initializing cgroup subsys cpuset
[    0.000000] Initializing cgroup subsys cpu
[    0.000000] Initializing cgroup subsys cpuacct


root@linaro-alip:/home/linaro# lkvm run -k /media/linaro/8c084bfe-be51-4751-b3ff-2b33fdb235d7/kernel/new/Image -m 254 -c 2 --name foo 
  # lkvm run -k /media/linaro/8c084bfe-be51-4751-b3ff-2b33fdb235d7/kernel/new/Image -m 254 -c 2 --name foo
  Info: Loaded kernel to 0x80080000 (12040672 bytes)
  Info: Placing fdt at 0x8fc00000 - 0x8fdfffff
  Info: virtio-mmio.devices=0x200@0x10000:36

  Info: virtio-mmio.devices=0x200@0x10200:37

  Info: virtio-mmio.devices=0x200@0x10400:38

[    0.000000] Initializing cgroup subsys cpuset
[    0.000000] Initializing cgroup subsys cpu
[    0.000000] Initializing cgroup subsys cpuacct


[    2.153835] [drm] Initialized drm 1.1.0 20060810
[    2.160035] brd: module loaded
[    2.163355] loop: module loaded
[    2.164636] tun: Universal TUN/TAP device driver, 1.6
[    2.165668] tun: (C) 1999-2004 Max Krasnyansky <maxk@qualcomm.com>
[    2.170234] PPP generic driver version 2.4.2
[    2.171357] PPP BSD Compression module registered
[    2.172301] PPP Deflate Compression module registered
[    2.173316] PPP MPPE Compression module registered
[    2.174265] NET: Registered protocol family 24
[    2.175218] pegasus: v0.9.3 (2013/04/25), Pegasus/Pegasus II USB Ethernet driver
[    2.176743] usbcore: registered new interface driver pegasus
[    2.178115] usbcore: registered new interface driver rtl8150
[    2.179314] usbcore: registered new interface driver r8152
[    2.180464] usbcore: registered new interface driver asix
[    2.181593] usbcore: registered new interface driver ax88179_178a
# 

