Script started on Tue 06 Mar 2018 10:48:01 AM UTC
root@linaro-alip:~/DADE/scripts# ./run_guest.sh ../kernels/Image-frptr 
  # lkvm run -k ../kernels/Image-4.4.0 -m 512 -c 2 --name pontifex
[!^*] Kern start host virt addr 0x7f85080000
[!^*] Kern end host virt addr 0x7f85bfb9e0
  Info: Loaded kernel to 0x80080000 (12040672 bytes)
  Info: Placing fdt at 0x8fe00000 - 0x8fffffff
  Info: virtio-mmio.devices=0x200@0x10000:36

  Info: virtio-mmio.devices=0x200@0x10200:37

  Info: virtio-mmio.devices=0x200@0x10400:38

[    0.000000] Initializing cgroup subsys cpuset
[    0.000000] Initializing cgroup subsys cpu
[    0.000000] Initializing cgroup subsys cpuacct
[    0.000000] Linux version 3.18.0 (leviathan@latitude) (gcc version 4.9.2 20140904 (prerelease) (crosstool-NG linaro-1.13.1-4.9-2014.09 - Linaro GCC 4.9-2014.09) ) #1 SMP PREEMPT Thu Nov 16 19:56:15 CET 2017
[    0.000000] CPU: AArch64 Processor [410fd033] revision 3
[    0.000000] Detected VIPT I-cache on CPU0
[    0.000000] efi: Getting EFI parameters from FDT:
[    0.000000] efi: UEFI not found.
[    0.000000] cma: Reserved 128 MiB at 0x0000000098000000
[    0.000000] psci: probing for conduit method from DT.
[    0.000000] psci: PSCIv0.2 detected in firmware.
[    0.000000] psci: Using standard PSCI v0.2 function IDs
[    0.000000] PERCPU: Embedded 14 pages/cpu @ffffffc017fd9000 s19328 r8192 d29824 u57344
[    0.000000] Built 1 zonelists in Zone order, mobility grouping on.  Total pages: 129280
[    0.000000] Kernel command line:  console=ttyS0 rw rootflags=trans=virtio,version=9p2000.L,cache=loose rootfstype=9p init=/virt/init  ip=dhcp
[    0.000000] PID hash table entries: 2048 (order: 2, 16384 bytes)
[    0.000000] Dentry cache hash table entries: 65536 (order: 7, 524288 bytes)
[    0.000000] Inode-cache hash table entries: 32768 (order: 6, 262144 bytes)
[    0.000000] Memory: 365660K/524288K available (7665K kernel code, 650K rwdata, 3080K rodata, 356K init, 493K bss, 158628K reserved)
[    0.000000] Virtual kernel memory layout:
[    0.000000]     vmalloc : 0xffffff8000000000 - 0xffffffbdffff0000   (   247 GB)
[    0.000000]     vmemmap : 0xffffffbe00000000 - 0xffffffbfc0000000   (     7 GB maximum)
[    0.000000]               0xffffffbe01c00000 - 0xffffffbe02300000   (     7 MB actual)
[    0.000000]     PCI I/O : 0xffffffbffa000000 - 0xffffffbffb000000   (    16 MB)
[    0.000000]     fixed   : 0xffffffbffbdfe000 - 0xffffffbffbdff000   (     4 KB)
[    0.000000]     modules : 0xffffffbffc000000 - 0xffffffc000000000   (    64 MB)
[    0.000000]     memory  : 0xffffffc000000000 - 0xffffffc020000000   (   512 MB)
[    0.000000]       .init : 0xffffffc000b00000 - 0xffffffc000b59000   (   356 KB)
[    0.000000]       .text : 0xffffffc000080000 - 0xffffffc000aff434   ( 10750 KB)
[    0.000000]       .data : 0xffffffc000b59000 - 0xffffffc000bfb9e0   (   651 KB)
[    0.000000] Preemptible hierarchical RCU implementation.
[    0.000000] 	RCU restricting CPUs from NR_CPUS=64 to nr_cpu_ids=2.
[    0.000000] RCU: Adjusting geometry for rcu_fanout_leaf=16, nr_cpu_ids=2
[    0.000000] NR_IRQS:64 nr_irqs:64 16
[    0.000000] Architected cp15 timer(s) running at 1.20MHz (virt).
[    0.000005] sched_clock: 56 bits at 1200kHz, resolution 833ns, wraps every 3579139414016ns
[    0.000259] Console: colour dummy device 80x25
[    0.002354] allocated 4194304 bytes of page_cgroup
[    0.002358] please try 'cgroup_disable=memory' option if you don't want memory cgroups
[    0.002371] Calibrating delay loop (skipped), value calculated using timer frequency.. 2.40 BogoMIPS (lpj=12000)
[    0.002380] pid_max: default: 32768 minimum: 301
[    0.002477] Security Framework initialized
[    0.002490] SELinux:  Initializing.
[    0.002552] Mount-cache hash table entries: 1024 (order: 1, 8192 bytes)
[    0.002558] Mountpoint-cache hash table entries: 1024 (order: 1, 8192 bytes)
[    0.003029] Initializing cgroup subsys memory
[    0.003049] Initializing cgroup subsys devices
[    0.003063] Initializing cgroup subsys freezer
[    0.003071] Initializing cgroup subsys net_cls
[    0.003079] Initializing cgroup subsys blkio
[    0.003089] Initializing cgroup subsys perf_event
[    0.003097] Initializing cgroup subsys net_prio
[    0.003104] Initializing cgroup subsys hugetlb
[    0.003114] Initializing cgroup subsys debug
[    0.003350] /cpus/cpu@0: Unknown CPU type
[    0.003359] /cpus/cpu@1: Unknown CPU type
[    0.003411] hw perfevents: enabled with arm/armv8-pmuv3 PMU driver, 1 counters available
[    0.003439] EFI services will not be available.
[    0.085739] CPU1: Booted secondary processor
[    0.085751] Detected VIPT I-cache on CPU1
[    0.086029] Brought up 2 CPUs
[    0.086046] SMP: Total of 2 processors activated.
[    0.086715] devtmpfs: initialized
[    0.091450] xor: measuring software checksum speed
[    0.190981]    8regs     :  2383.200 MB/sec
[    0.291279]    8regs_prefetch:  2177.600 MB/sec
[    0.391580]    32regs    :  2640.800 MB/sec
[    0.491899]    32regs_prefetch:  2319.600 MB/sec
[    0.491908] xor: using function: 32regs (2640.800 MB/sec)
[    0.491945] pinctrl core: initialized pinctrl subsystem
[    0.492415] regulator-dummy: no parameters
[    0.493334] NET: Registered protocol family 16
[    0.516396] cpuidle: using governor ladder
[    0.542070] cpuidle: using governor menu
[    0.542196] vdso: 2 pages (1 code @ ffffffc000b61000, 1 data @ ffffffc000b60000)
[    0.542307] hw-breakpoint: found 6 breakpoint and 4 watchpoint registers.
[    0.544182] software IO TLB [mem 0x95c00000-0x96000000] (4MB) mapped at [ffffffc015c00000-ffffffc015ffffff]
[    0.545387] DMA: preallocated 256 KiB pool for atomic allocations
[    0.545504] Serial: AMBA PL011 UART driver
[    0.752589] raid6: int64x1    476 MB/s
[    0.923091] raid6: int64x2    698 MB/s
[    1.093783] raid6: int64x4   1008 MB/s
[    1.263910] raid6: int64x8   1043 MB/s
[    1.434054] raid6: neonx1     756 MB/s
[    1.604249] raid6: neonx2    1171 MB/s
[    1.774394] raid6: neonx4    1543 MB/s
[    1.944565] raid6: neonx8    1540 MB/s
[    1.944571] raid6: using algorithm neonx4 (1543 MB/s)
[    1.944576] raid6: using intx1 recovery algorithm
[    1.945040] vgaarb: loaded
[    1.945383] SCSI subsystem initialized
[    1.945859] usbcore: registered new interface driver usbfs
[    1.945913] usbcore: registered new interface driver hub
[    1.945971] usbcore: registered new device driver usb
[    1.946177] Linux video capture interface: v2.00
[    1.946520] Advanced Linux Sound Architecture Driver Initialized.
[    1.946994] NetLabel: Initializing
[    1.946999] NetLabel:  domain hash size = 128
[    1.947003] NetLabel:  protocols = UNLABELED CIPSOv4
[    1.947042] NetLabel:  unlabeled traffic allowed by default
[    1.947234] Switched to clocksource arch_sys_counter
[    1.977857] NET: Registered protocol family 2
[    1.978446] TCP established hash table entries: 4096 (order: 3, 32768 bytes)
[    1.978490] TCP bind hash table entries: 4096 (order: 4, 65536 bytes)
[    1.978556] TCP: Hash tables configured (established 4096 bind 4096)
[    1.978598] TCP: reno registered
[    1.978607] UDP hash table entries: 256 (order: 1, 8192 bytes)
[    1.978624] UDP-Lite hash table entries: 256 (order: 1, 8192 bytes)
[    1.978818] NET: Registered protocol family 1
[    1.979188] RPC: Registered named UNIX socket transport module.
[    1.979196] RPC: Registered udp transport module.
[    1.979200] RPC: Registered tcp transport module.
[    1.979205] RPC: Registered tcp NFSv4.1 backchannel transport module.
[    1.979632] kvm [1]: HYP mode not available
[    1.982026] futex hash table entries: 512 (order: 3, 32768 bytes)
[    1.982112] audit: initializing netlink subsys (disabled)
[    1.982148] audit: type=2000 audit(1.969:1): initialized
[    1.982729] HugeTLB registered 2 MB page size, pre-allocated 0 pages
[    1.983223] VFS: Disk quotas dquot_6.5.2
[    1.983275] Dquot-cache hash table entries: 512 (order 0, 4096 bytes)
[    1.983891] NFS: Registering the id_resolver key type
[    1.983918] Key type id_resolver registered
[    1.983923] Key type id_legacy registered
[    1.984117] fuse init (API version 7.23)
[    1.984393] 9p: Installing v9fs 9p2000 file system support
[    1.984441] msgmni has been set to 970
[    1.986300] io scheduler noop registered
[    1.986346] io scheduler cfq registered (default)
[    1.990025] Serial: 8250/16550 driver, 4 ports, IRQ sharing disabled
[    1.991608] console [ttyS0] disabled
[    1.991660] of_serial 3f8.U6_16550A: ttyS0 at MMIO 0x3f8 (irq = 32, base_baud = 115200) is a 16550A
[    2.144485] console [ttyS0] enabled
[    2.145958] of_serial 2f8.U6_16550A: ttyS1 at MMIO 0x2f8 (irq = 33, base_baud = 115200) is a 16550A
[    2.148522] of_serial 3e8.U6_16550A: ttyS2 at MMIO 0x3e8 (irq = 34, base_baud = 115200) is a 16550A
[    2.150968] of_serial 2e8.U6_16550A: ttyS3 at MMIO 0x2e8 (irq = 35, base_baud = 115200) is a 16550A
[    2.153376] [drm] Initialized drm 1.1.0 20060810
[    2.159662] brd: module loaded
[    2.163578] loop: module loaded
[    2.165063] tun: Universal TUN/TAP device driver, 1.6
[    2.166242] tun: (C) 1999-2004 Max Krasnyansky <maxk@qualcomm.com>
[    2.171014] PPP generic driver version 2.4.2
[    2.172246] PPP BSD Compression module registered
[    2.173445] PPP Deflate Compression module registered
[    2.174584] PPP MPPE Compression module registered
[    2.175649] NET: Registered protocol family 24
[    2.176625] pegasus: v0.9.3 (2013/04/25), Pegasus/Pegasus II USB Ethernet driver
[    2.178475] usbcore: registered new interface driver pegasus
[    2.179784] usbcore: registered new interface driver rtl8150
[    2.181207] usbcore: registered new interface driver r8152
[    2.182481] usbcore: registered new interface driver asix
[    2.183696] usbcore: registered new interface driver ax88179_178a
[    2.185039] usbcore: registered new interface driver cdc_ether
[    2.186360] usbcore: registered new interface driver dm9601
[    2.187793] usbcore: registered new interface driver CoreChips
[    2.189141] usbcore: registered new interface driver smsc75xx
[    2.190477] usbcore: registered new interface driver smsc95xx
[    2.191830] usbcore: registered new interface driver net1080
[    2.193127] usbcore: registered new interface driver plusb
[    2.194448] usbcore: registered new interface driver cdc_subset
[    2.195814] usbcore: registered new interface driver zaurus
[    2.197086] usbcore: registered new interface driver MOSCHIP usb-ethernet driver
[    2.198946] usbcore: registered new interface driver cdc_ncm
[    2.200360] ehci_hcd: USB 2.0 'Enhanced' Host Controller (EHCI) Driver
[    2.201745] ehci-pci: EHCI PCI platform driver
[    2.202762] ehci-platform: EHCI generic platform driver
[    2.203916] ohci_hcd: USB 1.1 'Open' Host Controller (OHCI) Driver
[    2.205214] ohci-pci: OHCI PCI platform driver
[    2.206200] ohci-platform: OHCI generic platform driver
[    2.207790] usbcore: registered new interface driver cdc_acm
[    2.209005] cdc_acm: USB Abstract Control Model driver for USB modems and ISDN adapters
[    2.210834] usbcore: registered new interface driver usb-storage
[    2.212466] mousedev: PS/2 mouse device common for all mice
[    2.214516] i2c /dev entries driver
[    2.215801] device-mapper: ioctl: 4.28.0-ioctl (2014-09-17) initialised: dm-devel@redhat.com
[    2.217947] sdhci: Secure Digital Host Controller Interface driver
[    2.219301] sdhci: Copyright(c) Pierre Ossman
[    2.220322] Synopsys Designware Multimedia Card Interface Driver
[    2.221835] sdhci-pltfm: SDHCI platform and OF driver helper
[    2.223213] ledtrig-cpu: registered to indicate activity on CPUs
[    2.224763] usbcore: registered new interface driver usbhid
[    2.225958] usbhid: USB HID core driver
[    2.226855] u32 classifier
[    2.227548]     Actions configured
[    2.228324] Netfilter messages via NETLINK v0.30.
[    2.229405] nf_conntrack version 0.5.0 (3880 buckets, 15520 max)
[    2.230949] ctnetlink v0.93: registering with nfnetlink.
[    2.232707] xt_time: kernel timezone is -0000
[    2.233966] ip_tables: (C) 2000-2006 Netfilter Core Team
[    2.235204] arp_tables: (C) 2002 David S. Miller
[    2.236289] TCP: cubic registered
[    2.237014] Initializing XFRM netlink socket
[    2.238236] NET: Registered protocol family 10
[    2.240015] mip6: Mobile IPv6
[    2.240685] ip6_tables: (C) 2000-2006 Netfilter Core Team
[    2.242094] NET: Registered protocol family 17
[    2.243050] NET: Registered protocol family 15
[    2.244035] 9pnet: Installing 9P2000 support
[    2.245761] Key type dns_resolver registered
[    2.247483] registered taskstats version 1
[    2.249248] Btrfs loaded
[    2.250180] otg_wakelock_init: No USB transceiver found
[    2.251345] drivers/rtc/hctosys.c: unable to open rtc device (rtc0)
[    2.267678] Sending DHCP requests ., OK
[    2.317404] IP-Config: Got DHCP answer from 192.168.33.1, my address is 192.168.33.15
[    2.319339] IP-Config: Complete:
[    2.320035]      device=eth0, hwaddr=02:15:15:15:15:15, ipaddr=192.168.33.15, mask=255.255.255.0, gw=192.168.33.1
[    2.322200]      host=192.168.33.15, domain=, nis-domain=(none)
[    2.323426]      bootserver=192.168.33.1, rootserver=0.0.0.0, rootpath=
[    2.324788]      nameserver0=155.210.3.12
[    2.325768] ALSA device list:
[    2.326407]   No soundcards found.
[    2.328955] VFS: Mounted root (9p filesystem) on device 0:15.
[    2.330719] devtmpfs: mounted
[    2.331593] Freeing unused kernel memory: 356K (ffffffc000b00000 - ffffffc000b59000)
[!^*] Kernel object addr 0x7f85b00000
[| |] Enter in backtrace extractor module...
dock.begin_addr 0x7f85b00000
ip = 0x40b950, sp = 0x7f83614520
ip = 0x40b950, sp = 0x7f836145a0
ip = 0x40a3a8, sp = 0x7f836167c0
ip = 0x40d0e8, sp = 0x7f836167e0
ip = 0x419560, sp = 0x7f83616840
ip = 0x415fc4, sp = 0x7f836168b0
ip = 0x7fa51bee34, sp = 0x7f836169e0
ip = 0x7fa51bee34, sp = 0x7f836169e0
[!^*] Kernel object addr 0x7f85b01000
[| |] Enter in backtrace extractor module...
dock.begin_addr 0x7f85b01000
ip = 0x40b950, sp = 0x7f82e14520
ip = 0x40b950, sp = 0x7f82e145a0
ip = 0x40a3a8, sp = 0x7f82e167c0
ip = 0x40d0e8, sp = 0x7f82e167e0
ip = 0x419560, sp = 0x7f82e16840
ip = 0x415fc4, sp = 0x7f82e168b0
ip = 0x7fa51bee34, sp = 0x7f82e169e0
ip = 0x7fa51bee34, sp = 0x7f82e169e0
[!^*] Kernel object addr 0x7f85b02000
[| |] Enter in backtrace extractor module...
dock.begin_addr 0x7f85b02000
ip = 0x40b950, sp = 0x7f82614520
ip = 0x40b950, sp = 0x7f826145a0
ip = 0x40a3a8, sp = 0x7f826167c0
ip = 0x40d0e8, sp = 0x7f826167e0
ip = 0x419560, sp = 0x7f82616840
ip = 0x415fc4, sp = 0x7f826168b0
ip = 0x7fa51bee34, sp = 0x7f826169e0
ip = 0x7fa51bee34, sp = 0x7f826169e0
[!^*] Kernel object addr 0x7f85b03000
[| |] Enter in backtrace extractor module...
dock.begin_addr 0x7f85b03000
ip = 0x40b950, sp = 0x7f81e14520
ip = 0x40b950, sp = 0x7f81e145a0
ip = 0x40a3a8, sp = 0x7f81e167c0
ip = 0x40d0e8, sp = 0x7f81e167e0
ip = 0x419560, sp = 0x7f81e16840
ip = 0x415fc4, sp = 0x7f81e168b0
ip = 0x7fa51bee34, sp = 0x7f81e169e0
ip = 0x7fa51bee34, sp = 0x7f81e169e0
[!^*] Kernel object addr 0x7f85b04000
[| |] Enter in backtrace extractor module...
dock.begin_addr 0x7f85b04000
ip = 0x40b950, sp = 0x7f81614520
ip = 0x40b950, sp = 0x7f816145a0
ip = 0x40a3a8, sp = 0x7f816167c0
ip = 0x40d0e8, sp = 0x7f816167e0
ip = 0x419560, sp = 0x7f81616840
ip = 0x415fc4, sp = 0x7f816168b0
ip = 0x7fa51bee34, sp = 0x7f816169e0
ip = 0x7fa51bee34, sp = 0x7f816169e0
[!^*] Kernel object addr 0x7f85b05000
[| |] Enter in backtrace extractor module...
dock.begin_addr 0x7f85b05000
ip = 0x40b950, sp = 0x7f80e14520
ip = 0x40b950, sp = 0x7f80e145a0
ip = 0x40a3a8, sp = 0x7f80e167c0
ip = 0x40d0e8, sp = 0x7f80e167e0
ip = 0x419560, sp = 0x7f80e16840
ip = 0x415fc4, sp = 0x7f80e168b0
ip = 0x7fa51bee34, sp = 0x7f80e169e0
ip = 0x7fa51bee34, sp = 0x7f80e169e0
[!^*] Kernel object addr 0x7f85b06000
[| |] Enter in backtrace extractor module...
dock.begin_addr 0x7f85b06000
ip = 0x40b950, sp = 0x7f80614520
ip = 0x40b950, sp = 0x7f806145a0
ip = 0x40a3a8, sp = 0x7f806167c0
ip = 0x40d0e8, sp = 0x7f806167e0
ip = 0x419560, sp = 0x7f80616840
ip = 0x415fc4, sp = 0x7f806168b0
ip = 0x7fa51bee34, sp = 0x7f806169e0
ip = 0x7fa51bee34, sp = 0x7f806169e0
[!^*] Kernel object addr 0x7f85b07000
[| |] Enter in backtrace extractor module...
dock.begin_addr 0x7f85b07000
ip = 0x40b950, sp = 0x7f7fe14520
ip = 0x40b950, sp = 0x7f7fe145a0
ip = 0x40a3a8, sp = 0x7f7fe167c0
ip = 0x40d0e8, sp = 0x7f7fe167e0
ip = 0x419560, sp = 0x7f7fe16840
ip = 0x415fc4, sp = 0x7f7fe168b0
ip = 0x7fa51bee34, sp = 0x7f7fe169e0
ip = 0x7fa51bee34, sp = 0x7f7fe169e0
[!^*] Kernel object addr 0x7f85b08000
[| |] Enter in backtrace extractor module...
dock.begin_addr 0x7f85b08000
ip = 0x40b950, sp = 0x7f83614520
ip = 0x40b950, sp = 0x7f836145a0
ip = 0x40a3a8, sp = 0x7f836167c0
ip = 0x40d0e8, sp = 0x7f836167e0
ip = 0x419560, sp = 0x7f83616840
ip = 0x415fc4, sp = 0x7f836168b0
ip = 0x7fa51bee34, sp = 0x7f836169e0
ip = 0x7fa51bee34, sp = 0x7f836169e0
[!^*] Kernel object addr 0x7f85b09000
[| |] Enter in backtrace extractor module...
dock.begin_addr 0x7f85b09000
ip = 0x40b950, sp = 0x7f82e14520
ip = 0x40b950, sp = 0x7f82e145a0
ip = 0x40a3a8, sp = 0x7f82e167c0
ip = 0x40d0e8, sp = 0x7f82e167e0
ip = 0x419560, sp = 0x7f82e16840
ip = 0x415fc4, sp = 0x7f82e168b0
ip = 0x7fa51bee34, sp = 0x7f82e169e0
ip = 0x7fa51bee34, sp = 0x7f82e169e0
[!^*] Kernel object addr 0x7f85b0a000
[| |] Enter in backtrace extractor module...
dock.begin_addr 0x7f85b0a000
ip = 0x40b950, sp = 0x7f82614520
ip = 0x40b950, sp = 0x7f826145a0
ip = 0x40a3a8, sp = 0x7f826167c0
ip = 0x40d0e8, sp = 0x7f826167e0
ip = 0x419560, sp = 0x7f82616840
ip = 0x415fc4, sp = 0x7f826168b0
ip = 0x7fa51bee34, sp = 0x7f826169e0
ip = 0x7fa51bee34, sp = 0x7f826169e0
[!^*] Kernel object addr 0x7f85b0b000
[| |] Enter in backtrace extractor module...
dock.begin_addr 0x7f85b0b000
ip = 0x40b950, sp = 0x7f81e14520
ip = 0x40b950, sp = 0x7f81e145a0
ip = 0x40a3a8, sp = 0x7f81e167c0
ip = 0x40d0e8, sp = 0x7f81e167e0
ip = 0x419560, sp = 0x7f81e16840
ip = 0x415fc4, sp = 0x7f81e168b0
ip = 0x7fa51bee34, sp = 0x7f81e169e0
ip = 0x7fa51bee34, sp = 0x7f81e169e0
[!^*] Kernel object addr 0x7f85b0c000
[| |] Enter in backtrace extractor module...
dock.begin_addr 0x7f85b0c000
ip = 0x40b950, sp = 0x7f81614520
ip = 0x40b950, sp = 0x7f816145a0
ip = 0x40a3a8, sp = 0x7f816167c0
ip = 0x40d0e8, sp = 0x7f816167e0
ip = 0x419560, sp = 0x7f81616840
ip = 0x415fc4, sp = 0x7f816168b0
ip = 0x7fa51bee34, sp = 0x7f816169e0
ip = 0x7fa51bee34, sp = 0x7f816169e0
[!^*] Kernel object addr 0x7f85b0d000
[| |] Enter in backtrace extractor module...
dock.begin_addr 0x7f85b0d000
ip = 0x40b950, sp = 0x7f80e14520
ip = 0x40b950, sp = 0x7f80e145a0
ip = 0x40a3a8, sp = 0x7f80e167c0
ip = 0x40d0e8, sp = 0x7f80e167e0
ip = 0x419560, sp = 0x7f80e16840
ip = 0x415fc4, sp = 0x7f80e168b0
ip = 0x7fa51bee34, sp = 0x7f80e169e0
ip = 0x7fa51bee34, sp = 0x7f80e169e0
[!^*] Kernel object addr 0x7f85b0e000
[| |] Enter in backtrace extractor module...
dock.begin_addr 0x7f85b0e000
ip = 0x40b950, sp = 0x7f80614520
ip = 0x40b950, sp = 0x7f806145a0
ip = 0x40a3a8, sp = 0x7f806167c0
ip = 0x40d0e8, sp = 0x7f806167e0
ip = 0x419560, sp = 0x7f80616840
ip = 0x415fc4, sp = 0x7f806168b0
ip = 0x7fa51bee34, sp = 0x7f806169e0
ip = 0x7fa51bee34, sp = 0x7f806169e0
[!^*] Kernel object addr 0x7f85b0f000
[| |] Enter in backtrace extractor module...
dock.begin_addr 0x7f85b0f000
ip = 0x40b950, sp = 0x7f7fe14520
ip = 0x40b950, sp = 0x7f7fe145a0
ip = 0x40a3a8, sp = 0x7f7fe167c0
ip = 0x40d0e8, sp = 0x7f7fe167e0
ip = 0x419560, sp = 0x7f7fe16840
ip = 0x415fc4, sp = 0x7f7fe168b0
ip = 0x7fa51bee34, sp = 0x7f7fe169e0
ip = 0x7fa51bee34, sp = 0x7f7fe169e0
[!^*] Kernel object addr 0x7f85b10000
[| |] Enter in backtrace extractor module...
dock.begin_addr 0x7f85b10000
ip = 0x40b950, sp = 0x7f83614520
ip = 0x40b950, sp = 0x7f836145a0
ip = 0x40a3a8, sp = 0x7f836167c0
ip = 0x40d0e8, sp = 0x7f836167e0
ip = 0x419560, sp = 0x7f83616840
ip = 0x415fc4, sp = 0x7f836168b0
ip = 0x7fa51bee34, sp = 0x7f836169e0
ip = 0x7fa51bee34, sp = 0x7f836169e0
[!^*] Kernel object addr 0x7f85b11000
[| |] Enter in backtrace extractor module...
dock.begin_addr 0x7f85b11000
ip = 0x40b950, sp = 0x7f82e14520
ip = 0x40b950, sp = 0x7f82e145a0
ip = 0x40a3a8, sp = 0x7f82e167c0
ip = 0x40d0e8, sp = 0x7f82e167e0
ip = 0x419560, sp = 0x7f82e16840
ip = 0x415fc4, sp = 0x7f82e168b0
ip = 0x7fa51bee34, sp = 0x7f82e169e0
ip = 0x7fa51bee34, sp = 0x7f82e169e0
[!^*] Kernel object addr 0x7f85b12000
[| |] Enter in backtrace extractor module...
dock.begin_addr 0x7f85b12000
ip = 0x40b950, sp = 0x7f82614520
ip = 0x40b950, sp = 0x7f826145a0
ip = 0x40a3a8, sp = 0x7f826167c0
ip = 0x40d0e8, sp = 0x7f826167e0
ip = 0x419560, sp = 0x7f82616840
ip = 0x415fc4, sp = 0x7f826168b0
ip = 0x7fa51bee34, sp = 0x7f826169e0
ip = 0x7fa51bee34, sp = 0x7f826169e0
[!^*] Kernel object addr 0x7f85b13000
[| |] Enter in backtrace extractor module...
dock.begin_addr 0x7f85b13000
ip = 0x40b950, sp = 0x7f81e14520
ip = 0x40b950, sp = 0x7f81e145a0
ip = 0x40a3a8, sp = 0x7f81e167c0
ip = 0x40d0e8, sp = 0x7f81e167e0
ip = 0x419560, sp = 0x7f81e16840
ip = 0x415fc4, sp = 0x7f81e168b0
ip = 0x7fa51bee34, sp = 0x7f81e169e0
ip = 0x7fa51bee34, sp = 0x7f81e169e0
[!^*] Kernel object addr 0x7f85b14000
[| |] Enter in backtrace extractor module...
dock.begin_addr 0x7f85b14000
ip = 0x40b950, sp = 0x7f81614520
ip = 0x40b950, sp = 0x7f816145a0
ip = 0x40a3a8, sp = 0x7f816167c0
ip = 0x40d0e8, sp = 0x7f816167e0
ip = 0x419560, sp = 0x7f81616840
ip = 0x415fc4, sp = 0x7f816168b0
ip = 0x7fa51bee34, sp = 0x7f816169e0
ip = 0x7fa51bee34, sp = 0x7f816169e0
[!^*] Kernel object addr 0x7f85b15000
[| |] Enter in backtrace extractor module...
dock.begin_addr 0x7f85b15000
ip = 0x40b950, sp = 0x7f80e14520
ip = 0x40b950, sp = 0x7f80e145a0
ip = 0x40a3a8, sp = 0x7f80e167c0
ip = 0x40d0e8, sp = 0x7f80e167e0
ip = 0x419560, sp = 0x7f80e16840
ip = 0x415fc4, sp = 0x7f80e168b0
ip = 0x7fa51bee34, sp = 0x7f80e169e0
ip = 0x7fa51bee34, sp = 0x7f80e169e0
[!^*] Kernel object addr 0x7f85b16000
[| |] Enter in backtrace extractor module...
dock.begin_addr 0x7f85b16000
ip = 0x40b950, sp = 0x7f80614520
ip = 0x40b950, sp = 0x7f806145a0
ip = 0x40a3a8, sp = 0x7f806167c0
ip = 0x40d0e8, sp = 0x7f806167e0
ip = 0x419560, sp = 0x7f80616840
ip = 0x415fc4, sp = 0x7f806168b0
ip = 0x7fa51bee34, sp = 0x7f806169e0
ip = 0x7fa51bee34, sp = 0x7f806169e0
[!^*] Kernel object addr 0x7f85b17000
[| |] Enter in backtrace extractor module...
dock.begin_addr 0x7f85b17000
ip = 0x40b950, sp = 0x7f7fe14520
ip = 0x40b950, sp = 0x7f7fe145a0
ip = 0x40a3a8, sp = 0x7f7fe167c0
ip = 0x40d0e8, sp = 0x7f7fe167e0
ip = 0x419560, sp = 0x7f7fe16840
ip = 0x415fc4, sp = 0x7f7fe168b0
ip = 0x7fa51bee34, sp = 0x7f7fe169e0
ip = 0x7fa51bee34, sp = 0x7f7fe169e0
[!^*] Kernel object addr 0x7f85b18000
[| |] Enter in backtrace extractor module...
dock.begin_addr 0x7f85b18000
ip = 0x40b950, sp = 0x7f83614520
ip = 0x40b950, sp = 0x7f836145a0
ip = 0x40a3a8, sp = 0x7f836167c0
ip = 0x40d0e8, sp = 0x7f836167e0
ip = 0x419560, sp = 0x7f83616840
ip = 0x415fc4, sp = 0x7f836168b0
ip = 0x7fa51bee34, sp = 0x7f836169e0
ip = 0x7fa51bee34, sp = 0x7f836169e0
[!^*] Kernel object addr 0x7f85b19000
[| |] Enter in backtrace extractor module...
dock.begin_addr 0x7f85b19000
ip = 0x40b950, sp = 0x7f82e14520
ip = 0x40b950, sp = 0x7f82e145a0
ip = 0x40a3a8, sp = 0x7f82e167c0
ip = 0x40d0e8, sp = 0x7f82e167e0
ip = 0x419560, sp = 0x7f82e16840
ip = 0x415fc4, sp = 0x7f82e168b0
ip = 0x7fa51bee34, sp = 0x7f82e169e0
ip = 0x7fa51bee34, sp = 0x7f82e169e0
[!^*] Kernel object addr 0x7f85b1a000
[| |] Enter in backtrace extractor module...
dock.begin_addr 0x7f85b1a000
ip = 0x40b950, sp = 0x7f82614520
ip = 0x40b950, sp = 0x7f826145a0
ip = 0x40a3a8, sp = 0x7f826167c0
ip = 0x40d0e8, sp = 0x7f826167e0
ip = 0x419560, sp = 0x7f82616840
ip = 0x415fc4, sp = 0x7f826168b0
ip = 0x7fa51bee34, sp = 0x7f826169e0
ip = 0x7fa51bee34, sp = 0x7f826169e0
[!^*] Kernel object addr 0x7f85b1b000
[| |] Enter in backtrace extractor module...
dock.begin_addr 0x7f85b1b000
ip = 0x40b950, sp = 0x7f81e14520
ip = 0x40b950, sp = 0x7f81e145a0
ip = 0x40a3a8, sp = 0x7f81e167c0
ip = 0x40d0e8, sp = 0x7f81e167e0
ip = 0x419560, sp = 0x7f81e16840
ip = 0x415fc4, sp = 0x7f81e168b0
ip = 0x7fa51bee34, sp = 0x7f81e169e0
ip = 0x7fa51bee34, sp = 0x7f81e169e0
[!^*] Kernel object addr 0x7f85b1c000
[| |] Enter in backtrace extractor module...
dock.begin_addr 0x7f85b1c000
ip = 0x40b950, sp = 0x7f81614520
ip = 0x40b950, sp = 0x7f816145a0
ip = 0x40a3a8, sp = 0x7f816167c0
ip = 0x40d0e8, sp = 0x7f816167e0
ip = 0x419560, sp = 0x7f81616840
ip = 0x415fc4, sp = 0x7f816168b0
ip = 0x7fa51bee34, sp = 0x7f816169e0
ip = 0x7fa51bee34, sp = 0x7f816169e0
[!^*] Kernel object addr 0x7f85b1d000
[| |] Enter in backtrace extractor module...
dock.begin_addr 0x7f85b1d000
ip = 0x40b950, sp = 0x7f80e14520
ip = 0x40b950, sp = 0x7f80e145a0
ip = 0x40a3a8, sp = 0x7f80e167c0
ip = 0x40d0e8, sp = 0x7f80e167e0
ip = 0x419560, sp = 0x7f80e16840
ip = 0x415fc4, sp = 0x7f80e168b0
ip = 0x7fa51bee34, sp = 0x7f80e169e0
ip = 0x7fa51bee34, sp = 0x7f80e169e0
[!^*] Kernel object addr 0x7f85b1e000
[| |] Enter in backtrace extractor module...
dock.begin_addr 0x7f85b1e000
ip = 0x40b950, sp = 0x7f80614520
ip = 0x40b950, sp = 0x7f806145a0
ip = 0x40a3a8, sp = 0x7f806167c0
ip = 0x40d0e8, sp = 0x7f806167e0
ip = 0x419560, sp = 0x7f80616840
ip = 0x415fc4, sp = 0x7f806168b0
ip = 0x7fa51bee34, sp = 0x7f806169e0
ip = 0x7fa51bee34, sp = 0x7f806169e0
[!^*] Kernel object addr 0x7f85b1f000
[| |] Enter in backtrace extractor module...
dock.begin_addr 0x7f85b1f000
ip = 0x40b950, sp = 0x7f7fe14520
ip = 0x40b950, sp = 0x7f7fe145a0
ip = 0x40a3a8, sp = 0x7f7fe167c0
ip = 0x40d0e8, sp = 0x7f7fe167e0
ip = 0x419560, sp = 0x7f7fe16840
ip = 0x415fc4, sp = 0x7f7fe168b0
ip = 0x7fa51bee34, sp = 0x7f7fe169e0
ip = 0x7fa51bee34, sp = 0x7f7fe169e0
[!^*] Kernel object addr 0x7f85b20000
[| |] Enter in backtrace extractor module...
dock.begin_addr 0x7f85b20000
ip = 0x40b950, sp = 0x7f83614520
ip = 0x40b950, sp = 0x7f836145a0
ip = 0x40a3a8, sp = 0x7f836167c0
ip = 0x40d0e8, sp = 0x7f836167e0
ip = 0x419560, sp = 0x7f83616840
ip = 0x415fc4, sp = 0x7f836168b0
ip = 0x7fa51bee34, sp = 0x7f836169e0
ip = 0x7fa51bee34, sp = 0x7f836169e0
[!^*] Kernel object addr 0x7f85b21000
[| |] Enter in backtrace extractor module...
dock.begin_addr 0x7f85b21000
ip = 0x40b950, sp = 0x7f82e14520
ip = 0x40b950, sp = 0x7f82e145a0
ip = 0x40a3a8, sp = 0x7f82e167c0
ip = 0x40d0e8, sp = 0x7f82e167e0
ip = 0x419560, sp = 0x7f82e16840
ip = 0x415fc4, sp = 0x7f82e168b0
ip = 0x7fa51bee34, sp = 0x7f82e169e0
ip = 0x7fa51bee34, sp = 0x7f82e169e0
[!^*] Kernel object addr 0x7f85b22000
[| |] Enter in backtrace extractor module...
dock.begin_addr 0x7f85b22000
ip = 0x40b950, sp = 0x7f82614520
ip = 0x40b950, sp = 0x7f826145a0
ip = 0x40a3a8, sp = 0x7f826167c0
ip = 0x40d0e8, sp = 0x7f826167e0
ip = 0x419560, sp = 0x7f82616840
ip = 0x415fc4, sp = 0x7f826168b0
ip = 0x7fa51bee34, sp = 0x7f826169e0
ip = 0x7fa51bee34, sp = 0x7f826169e0
[!^*] Kernel object addr 0x7f85b23000
[| |] Enter in backtrace extractor module...
dock.begin_addr 0x7f85b23000
ip = 0x40b950, sp = 0x7f81e14520
ip = 0x40b950, sp = 0x7f81e145a0
ip = 0x40a3a8, sp = 0x7f81e167c0
ip = 0x40d0e8, sp = 0x7f81e167e0
ip = 0x419560, sp = 0x7f81e16840
ip = 0x415fc4, sp = 0x7f81e168b0
ip = 0x7fa51bee34, sp = 0x7f81e169e0
ip = 0x7fa51bee34, sp = 0x7f81e169e0
[!^*] Kernel object addr 0x7f85b24000
[| |] Enter in backtrace extractor module...
dock.begin_addr 0x7f85b24000
ip = 0x40b950, sp = 0x7f81614520
ip = 0x40b950, sp = 0x7f816145a0
ip = 0x40a3a8, sp = 0x7f816167c0
ip = 0x40d0e8, sp = 0x7f816167e0
ip = 0x419560, sp = 0x7f81616840
ip = 0x415fc4, sp = 0x7f816168b0
ip = 0x7fa51bee34, sp = 0x7f816169e0
ip = 0x7fa51bee34, sp = 0x7f816169e0
[!^*] Kernel object addr 0x7f85b25000
[| |] Enter in backtrace extractor module...
dock.begin_addr 0x7f85b25000
ip = 0x40b950, sp = 0x7f80e14520
ip = 0x40b950, sp = 0x7f80e145a0
ip = 0x40a3a8, sp = 0x7f80e167c0
ip = 0x40d0e8, sp = 0x7f80e167e0
ip = 0x419560, sp = 0x7f80e16840
ip = 0x415fc4, sp = 0x7f80e168b0
ip = 0x7fa51bee34, sp = 0x7f80e169e0
ip = 0x7fa51bee34, sp = 0x7f80e169e0
[!^*] Kernel object addr 0x7f85b26000
[| |] Enter in backtrace extractor module...
dock.begin_addr 0x7f85b26000
ip = 0x40b950, sp = 0x7f80614520
ip = 0x40b950, sp = 0x7f806145a0
ip = 0x40a3a8, sp = 0x7f806167c0
ip = 0x40d0e8, sp = 0x7f806167e0
ip = 0x419560, sp = 0x7f80616840
ip = 0x415fc4, sp = 0x7f806168b0
ip = 0x7fa51bee34, sp = 0x7f806169e0
ip = 0x7fa51bee34, sp = 0x7f806169e0
[!^*] Kernel object addr 0x7f85b27000
[| |] Enter in backtrace extractor module...
dock.begin_addr 0x7f85b27000
ip = 0x40b950, sp = 0x7f7fe14520
ip = 0x40b950, sp = 0x7f7fe145a0
ip = 0x40a3a8, sp = 0x7f7fe167c0
ip = 0x40d0e8, sp = 0x7f7fe167e0
ip = 0x419560, sp = 0x7f7fe16840
ip = 0x415fc4, sp = 0x7f7fe168b0
ip = 0x7fa51bee34, sp = 0x7f7fe169e0
ip = 0x7fa51bee34, sp = 0x7f7fe169e0
[!^*] Kernel object addr 0x7f85b28000
[| |] Enter in backtrace extractor module...
dock.begin_addr 0x7f85b28000
ip = 0x40b950, sp = 0x7f83614520
ip = 0x40b950, sp = 0x7f836145a0
ip = 0x40a3a8, sp = 0x7f836167c0
ip = 0x40d0e8, sp = 0x7f836167e0
ip = 0x419560, sp = 0x7f83616840
ip = 0x415fc4, sp = 0x7f836168b0
ip = 0x7fa51bee34, sp = 0x7f836169e0
ip = 0x7fa51bee34, sp = 0x7f836169e0
[!^*] Kernel object addr 0x7f85b29000
[| |] Enter in backtrace extractor module...
dock.begin_addr 0x7f85b29000
ip = 0x40b950, sp = 0x7f82e14520
ip = 0x40b950, sp = 0x7f82e145a0
ip = 0x40a3a8, sp = 0x7f82e167c0
ip = 0x40d0e8, sp = 0x7f82e167e0
ip = 0x419560, sp = 0x7f82e16840
ip = 0x415fc4, sp = 0x7f82e168b0
ip = 0x7fa51bee34, sp = 0x7f82e169e0
ip = 0x7fa51bee34, sp = 0x7f82e169e0
[!^*] Kernel object addr 0x7f85b2a000
[| |] Enter in backtrace extractor module...
dock.begin_addr 0x7f85b2a000
ip = 0x40b950, sp = 0x7f82614520
ip = 0x40b950, sp = 0x7f826145a0
ip = 0x40a3a8, sp = 0x7f826167c0
ip = 0x40d0e8, sp = 0x7f826167e0
ip = 0x419560, sp = 0x7f82616840
ip = 0x415fc4, sp = 0x7f826168b0
ip = 0x7fa51bee34, sp = 0x7f826169e0
ip = 0x7fa51bee34, sp = 0x7f826169e0
[!^*] Kernel object addr 0x7f85b2b000
[| |] Enter in backtrace extractor module...
dock.begin_addr 0x7f85b2b000
ip = 0x40b950, sp = 0x7f81e14520
ip = 0x40b950, sp = 0x7f81e145a0
ip = 0x40a3a8, sp = 0x7f81e167c0
ip = 0x40d0e8, sp = 0x7f81e167e0
ip = 0x419560, sp = 0x7f81e16840
ip = 0x415fc4, sp = 0x7f81e168b0
ip = 0x7fa51bee34, sp = 0x7f81e169e0
ip = 0x7fa51bee34, sp = 0x7f81e169e0
[!^*] Kernel object addr 0x7f85b2c000
[| |] Enter in backtrace extractor module...
dock.begin_addr 0x7f85b2c000
ip = 0x40b950, sp = 0x7f81614520
ip = 0x40b950, sp = 0x7f816145a0
ip = 0x40a3a8, sp = 0x7f816167c0
ip = 0x40d0e8, sp = 0x7f816167e0
ip = 0x419560, sp = 0x7f81616840
ip = 0x415fc4, sp = 0x7f816168b0
ip = 0x7fa51bee34, sp = 0x7f816169e0
ip = 0x7fa51bee34, sp = 0x7f816169e0
[!^*] Kernel object addr 0x7f85b2d000
[| |] Enter in backtrace extractor module...
dock.begin_addr 0x7f85b2d000
ip = 0x40b950, sp = 0x7f80e14520
ip = 0x40b950, sp = 0x7f80e145a0
ip = 0x40a3a8, sp = 0x7f80e167c0
ip = 0x40d0e8, sp = 0x7f80e167e0
ip = 0x419560, sp = 0x7f80e16840
ip = 0x415fc4, sp = 0x7f80e168b0
ip = 0x7fa51bee34, sp = 0x7f80e169e0
ip = 0x7fa51bee34, sp = 0x7f80e169e0
[!^*] Kernel object addr 0x7f85b2e000
[| |] Enter in backtrace extractor module...
dock.begin_addr 0x7f85b2e000
ip = 0x40b950, sp = 0x7f80614520
ip = 0x40b950, sp = 0x7f806145a0
ip = 0x40a3a8, sp = 0x7f806167c0
ip = 0x40d0e8, sp = 0x7f806167e0
ip = 0x419560, sp = 0x7f80616840
ip = 0x415fc4, sp = 0x7f806168b0
ip = 0x7fa51bee34, sp = 0x7f806169e0
ip = 0x7fa51bee34, sp = 0x7f806169e0
[!^*] Kernel object addr 0x7f85b2f000
[| |] Enter in backtrace extractor module...
dock.begin_addr 0x7f85b2f000
ip = 0x40b950, sp = 0x7f7fe14520
ip = 0x40b950, sp = 0x7f7fe145a0
ip = 0x40a3a8, sp = 0x7f7fe167c0
ip = 0x40d0e8, sp = 0x7f7fe167e0
ip = 0x419560, sp = 0x7f7fe16840
ip = 0x415fc4, sp = 0x7f7fe168b0
ip = 0x7fa51bee34, sp = 0x7f7fe169e0
ip = 0x7fa51bee34, sp = 0x7f7fe169e0
[!^*] Kernel object addr 0x7f85b30000
[| |] Enter in backtrace extractor module...
dock.begin_addr 0x7f85b30000
ip = 0x40b950, sp = 0x7f83614520
ip = 0x40b950, sp = 0x7f836145a0
ip = 0x40a3a8, sp = 0x7f836167c0
ip = 0x40d0e8, sp = 0x7f836167e0
ip = 0x419560, sp = 0x7f83616840
ip = 0x415fc4, sp = 0x7f836168b0
ip = 0x7fa51bee34, sp = 0x7f836169e0
ip = 0x7fa51bee34, sp = 0x7f836169e0
[!^*] Kernel object addr 0x7f85b31000
[| |] Enter in backtrace extractor module...
dock.begin_addr 0x7f85b31000
ip = 0x40b950, sp = 0x7f82e14520
ip = 0x40b950, sp = 0x7f82e145a0
ip = 0x40a3a8, sp = 0x7f82e167c0
ip = 0x40d0e8, sp = 0x7f82e167e0
ip = 0x419560, sp = 0x7f82e16840
ip = 0x415fc4, sp = 0x7f82e168b0
ip = 0x7fa51bee34, sp = 0x7f82e169e0
ip = 0x7fa51bee34, sp = 0x7f82e169e0
[!^*] Kernel object addr 0x7f85b32000
[| |] Enter in backtrace extractor module...
dock.begin_addr 0x7f85b32000
ip = 0x40b950, sp = 0x7f82614520
ip = 0x40b950, sp = 0x7f826145a0
ip = 0x40a3a8, sp = 0x7f826167c0
ip = 0x40d0e8, sp = 0x7f826167e0
ip = 0x419560, sp = 0x7f82616840
ip = 0x415fc4, sp = 0x7f826168b0
ip = 0x7fa51bee34, sp = 0x7f826169e0
ip = 0x7fa51bee34, sp = 0x7f826169e0
[!^*] Kernel object addr 0x7f85b33000
[| |] Enter in backtrace extractor module...
dock.begin_addr 0x7f85b33000
ip = 0x40b950, sp = 0x7f81e14520
ip = 0x40b950, sp = 0x7f81e145a0
ip = 0x40a3a8, sp = 0x7f81e167c0
ip = 0x40d0e8, sp = 0x7f81e167e0
ip = 0x419560, sp = 0x7f81e16840
ip = 0x415fc4, sp = 0x7f81e168b0
ip = 0x7fa51bee34, sp = 0x7f81e169e0
ip = 0x7fa51bee34, sp = 0x7f81e169e0
[!^*] Kernel object addr 0x7f85b34000
[| |] Enter in backtrace extractor module...
dock.begin_addr 0x7f85b34000
ip = 0x40b950, sp = 0x7f81614520
ip = 0x40b950, sp = 0x7f816145a0
ip = 0x40a3a8, sp = 0x7f816167c0
ip = 0x40d0e8, sp = 0x7f816167e0
ip = 0x419560, sp = 0x7f81616840
ip = 0x415fc4, sp = 0x7f816168b0
ip = 0x7fa51bee34, sp = 0x7f816169e0
ip = 0x7fa51bee34, sp = 0x7f816169e0
[!^*] Kernel object addr 0x7f85b35000
[| |] Enter in backtrace extractor module...
dock.begin_addr 0x7f85b35000
ip = 0x40b950, sp = 0x7f80e14520
ip = 0x40b950, sp = 0x7f80e145a0
ip = 0x40a3a8, sp = 0x7f80e167c0
ip = 0x40d0e8, sp = 0x7f80e167e0
ip = 0x419560, sp = 0x7f80e16840
ip = 0x415fc4, sp = 0x7f80e168b0
ip = 0x7fa51bee34, sp = 0x7f80e169e0
ip = 0x7fa51bee34, sp = 0x7f80e169e0
[!^*] Kernel object addr 0x7f85b36000
[| |] Enter in backtrace extractor module...
dock.begin_addr 0x7f85b36000
ip = 0x40b950, sp = 0x7f80614520
ip = 0x40b950, sp = 0x7f806145a0
ip = 0x40a3a8, sp = 0x7f806167c0
ip = 0x40d0e8, sp = 0x7f806167e0
ip = 0x419560, sp = 0x7f80616840
ip = 0x415fc4, sp = 0x7f806168b0
ip = 0x7fa51bee34, sp = 0x7f806169e0
ip = 0x7fa51bee34, sp = 0x7f806169e0
[!^*] Kernel object addr 0x7f85b37000
[| |] Enter in backtrace extractor module...
dock.begin_addr 0x7f85b37000
ip = 0x40b950, sp = 0x7f7fe14520
ip = 0x40b950, sp = 0x7f7fe145a0
ip = 0x40a3a8, sp = 0x7f7fe167c0
ip = 0x40d0e8, sp = 0x7f7fe167e0
ip = 0x419560, sp = 0x7f7fe16840
ip = 0x415fc4, sp = 0x7f7fe168b0
ip = 0x7fa51bee34, sp = 0x7f7fe169e0
ip = 0x7fa51bee34, sp = 0x7f7fe169e0
[!^*] Kernel object addr 0x7f85b38000
[| |] Enter in backtrace extractor module...
dock.begin_addr 0x7f85b38000
ip = 0x40b950, sp = 0x7f83614520
ip = 0x40b950, sp = 0x7f836145a0
ip = 0x40a3a8, sp = 0x7f836167c0
ip = 0x40d0e8, sp = 0x7f836167e0
ip = 0x419560, sp = 0x7f83616840
ip = 0x415fc4, sp = 0x7f836168b0
ip = 0x7fa51bee34, sp = 0x7f836169e0
ip = 0x7fa51bee34, sp = 0x7f836169e0
[!^*] Kernel object addr 0x7f85b39000
[| |] Enter in backtrace extractor module...
dock.begin_addr 0x7f85b39000
ip = 0x40b950, sp = 0x7f82e14520
ip = 0x40b950, sp = 0x7f82e145a0
ip = 0x40a3a8, sp = 0x7f82e167c0
ip = 0x40d0e8, sp = 0x7f82e167e0
ip = 0x419560, sp = 0x7f82e16840
ip = 0x415fc4, sp = 0x7f82e168b0
ip = 0x7fa51bee34, sp = 0x7f82e169e0
ip = 0x7fa51bee34, sp = 0x7f82e169e0
[!^*] Kernel object addr 0x7f85b3a000
[| |] Enter in backtrace extractor module...
dock.begin_addr 0x7f85b3a000
ip = 0x40b950, sp = 0x7f82614520
ip = 0x40b950, sp = 0x7f826145a0
ip = 0x40a3a8, sp = 0x7f826167c0
ip = 0x40d0e8, sp = 0x7f826167e0
ip = 0x419560, sp = 0x7f82616840
ip = 0x415fc4, sp = 0x7f826168b0
ip = 0x7fa51bee34, sp = 0x7f826169e0
ip = 0x7fa51bee34, sp = 0x7f826169e0
[!^*] Kernel object addr 0x7f85b3b000
[| |] Enter in backtrace extractor module...
dock.begin_addr 0x7f85b3b000
ip = 0x40b950, sp = 0x7f81e14520
ip = 0x40b950, sp = 0x7f81e145a0
ip = 0x40a3a8, sp = 0x7f81e167c0
ip = 0x40d0e8, sp = 0x7f81e167e0
ip = 0x419560, sp = 0x7f81e16840
ip = 0x415fc4, sp = 0x7f81e168b0
ip = 0x7fa51bee34, sp = 0x7f81e169e0
ip = 0x7fa51bee34, sp = 0x7f81e169e0
[!^*] Kernel object addr 0x7f85b3c000
[| |] Enter in backtrace extractor module...
dock.begin_addr 0x7f85b3c000
ip = 0x40b950, sp = 0x7f81614520
ip = 0x40b950, sp = 0x7f816145a0
ip = 0x40a3a8, sp = 0x7f816167c0
ip = 0x40d0e8, sp = 0x7f816167e0
ip = 0x419560, sp = 0x7f81616840
ip = 0x415fc4, sp = 0x7f816168b0
ip = 0x7fa51bee34, sp = 0x7f816169e0
ip = 0x7fa51bee34, sp = 0x7f816169e0
[!^*] Kernel object addr 0x7f85b3d000
[| |] Enter in backtrace extractor module...
dock.begin_addr 0x7f85b3d000
ip = 0x40b950, sp = 0x7f80e14520
ip = 0x40b950, sp = 0x7f80e145a0
ip = 0x40a3a8, sp = 0x7f80e167c0
ip = 0x40d0e8, sp = 0x7f80e167e0
ip = 0x419560, sp = 0x7f80e16840
ip = 0x415fc4, sp = 0x7f80e168b0
ip = 0x7fa51bee34, sp = 0x7f80e169e0
ip = 0x7fa51bee34, sp = 0x7f80e169e0
[!^*] Kernel object addr 0x7f85b3e000
[| |] Enter in backtrace extractor module...
dock.begin_addr 0x7f85b3e000
ip = 0x40b950, sp = 0x7f80614520
ip = 0x40b950, sp = 0x7f806145a0
ip = 0x40a3a8, sp = 0x7f806167c0
ip = 0x40d0e8, sp = 0x7f806167e0
ip = 0x419560, sp = 0x7f80616840
ip = 0x415fc4, sp = 0x7f806168b0
ip = 0x7fa51bee34, sp = 0x7f806169e0
ip = 0x7fa51bee34, sp = 0x7f806169e0
[!^*] Kernel object addr 0x7f85b3f000
[| |] Enter in backtrace extractor module...
dock.begin_addr 0x7f85b3f000
ip = 0x40b950, sp = 0x7f7fe14520
ip = 0x40b950, sp = 0x7f7fe145a0
ip = 0x40a3a8, sp = 0x7f7fe167c0
ip = 0x40d0e8, sp = 0x7f7fe167e0
ip = 0x419560, sp = 0x7f7fe16840
ip = 0x415fc4, sp = 0x7f7fe168b0
ip = 0x7fa51bee34, sp = 0x7f7fe169e0
ip = 0x7fa51bee34, sp = 0x7f7fe169e0
[!^*] Kernel object addr 0x7f85b40000
[| |] Enter in backtrace extractor module...
dock.begin_addr 0x7f85b40000
ip = 0x40b950, sp = 0x7f83614520
ip = 0x40b950, sp = 0x7f836145a0
ip = 0x40a3a8, sp = 0x7f836167c0
ip = 0x40d0e8, sp = 0x7f836167e0
ip = 0x419560, sp = 0x7f83616840
ip = 0x415fc4, sp = 0x7f836168b0
ip = 0x7fa51bee34, sp = 0x7f836169e0
ip = 0x7fa51bee34, sp = 0x7f836169e0
[!^*] Kernel object addr 0x7f85b41000
[| |] Enter in backtrace extractor module...
dock.begin_addr 0x7f85b41000
ip = 0x40b950, sp = 0x7f82e14520
ip = 0x40b950, sp = 0x7f82e145a0
ip = 0x40a3a8, sp = 0x7f82e167c0
ip = 0x40d0e8, sp = 0x7f82e167e0
ip = 0x419560, sp = 0x7f82e16840
ip = 0x415fc4, sp = 0x7f82e168b0
ip = 0x7fa51bee34, sp = 0x7f82e169e0
ip = 0x7fa51bee34, sp = 0x7f82e169e0
[!^*] Kernel object addr 0x7f85b42000
[| |] Enter in backtrace extractor module...
dock.begin_addr 0x7f85b42000
ip = 0x40b950, sp = 0x7f82614520
ip = 0x40b950, sp = 0x7f826145a0
ip = 0x40a3a8, sp = 0x7f826167c0
ip = 0x40d0e8, sp = 0x7f826167e0
ip = 0x419560, sp = 0x7f82616840
ip = 0x415fc4, sp = 0x7f826168b0
ip = 0x7fa51bee34, sp = 0x7f826169e0
ip = 0x7fa51bee34, sp = 0x7f826169e0
[!^*] Kernel object addr 0x7f85b43000
[| |] Enter in backtrace extractor module...
dock.begin_addr 0x7f85b43000
ip = 0x40b950, sp = 0x7f81e14520
ip = 0x40b950, sp = 0x7f81e145a0
ip = 0x40a3a8, sp = 0x7f81e167c0
ip = 0x40d0e8, sp = 0x7f81e167e0
ip = 0x419560, sp = 0x7f81e16840
ip = 0x415fc4, sp = 0x7f81e168b0
ip = 0x7fa51bee34, sp = 0x7f81e169e0
ip = 0x7fa51bee34, sp = 0x7f81e169e0
[!^*] Kernel object addr 0x7f85b44000
[| |] Enter in backtrace extractor module...
dock.begin_addr 0x7f85b44000
ip = 0x40b950, sp = 0x7f81614520
ip = 0x40b950, sp = 0x7f816145a0
ip = 0x40a3a8, sp = 0x7f816167c0
ip = 0x40d0e8, sp = 0x7f816167e0
ip = 0x419560, sp = 0x7f81616840
ip = 0x415fc4, sp = 0x7f816168b0
ip = 0x7fa51bee34, sp = 0x7f816169e0
ip = 0x7fa51bee34, sp = 0x7f816169e0
[!^*] Kernel object addr 0x7f85b45000
[| |] Enter in backtrace extractor module...
dock.begin_addr 0x7f85b45000
ip = 0x40b950, sp = 0x7f80e14520
ip = 0x40b950, sp = 0x7f80e145a0
ip = 0x40a3a8, sp = 0x7f80e167c0
ip = 0x40d0e8, sp = 0x7f80e167e0
ip = 0x419560, sp = 0x7f80e16840
ip = 0x415fc4, sp = 0x7f80e168b0
ip = 0x7fa51bee34, sp = 0x7f80e169e0
ip = 0x7fa51bee34, sp = 0x7f80e169e0
[!^*] Kernel object addr 0x7f85b46000
[| |] Enter in backtrace extractor module...
dock.begin_addr 0x7f85b46000
ip = 0x40b950, sp = 0x7f80614520
ip = 0x40b950, sp = 0x7f806145a0
ip = 0x40a3a8, sp = 0x7f806167c0
ip = 0x40d0e8, sp = 0x7f806167e0
ip = 0x419560, sp = 0x7f80616840
ip = 0x415fc4, sp = 0x7f806168b0
ip = 0x7fa51bee34, sp = 0x7f806169e0
ip = 0x7fa51bee34, sp = 0x7f806169e0
[!^*] Kernel object addr 0x7f85b47000
[| |] Enter in backtrace extractor module...
dock.begin_addr 0x7f85b47000
ip = 0x40b950, sp = 0x7f7fe14520
ip = 0x40b950, sp = 0x7f7fe145a0
ip = 0x40a3a8, sp = 0x7f7fe167c0
ip = 0x40d0e8, sp = 0x7f7fe167e0
ip = 0x419560, sp = 0x7f7fe16840
ip = 0x415fc4, sp = 0x7f7fe168b0
ip = 0x7fa51bee34, sp = 0x7f7fe169e0
ip = 0x7fa51bee34, sp = 0x7f7fe169e0
[!^*] Kernel object addr 0x7f85b48000
[| |] Enter in backtrace extractor module...
dock.begin_addr 0x7f85b48000
ip = 0x40b950, sp = 0x7f83614520
ip = 0x40b950, sp = 0x7f836145a0
ip = 0x40a3a8, sp = 0x7f836167c0
ip = 0x40d0e8, sp = 0x7f836167e0
ip = 0x419560, sp = 0x7f83616840
ip = 0x415fc4, sp = 0x7f836168b0
ip = 0x7fa51bee34, sp = 0x7f836169e0
ip = 0x7fa51bee34, sp = 0x7f836169e0
[!^*] Kernel object addr 0x7f85b49000
[| |] Enter in backtrace extractor module...
dock.begin_addr 0x7f85b49000
ip = 0x40b950, sp = 0x7f82e14520
ip = 0x40b950, sp = 0x7f82e145a0
ip = 0x40a3a8, sp = 0x7f82e167c0
ip = 0x40d0e8, sp = 0x7f82e167e0
ip = 0x419560, sp = 0x7f82e16840
ip = 0x415fc4, sp = 0x7f82e168b0
ip = 0x7fa51bee34, sp = 0x7f82e169e0
ip = 0x7fa51bee34, sp = 0x7f82e169e0
[!^*] Kernel object addr 0x7f85b4a000
[| |] Enter in backtrace extractor module...
dock.begin_addr 0x7f85b4a000
ip = 0x40b950, sp = 0x7f82614520
ip = 0x40b950, sp = 0x7f826145a0
ip = 0x40a3a8, sp = 0x7f826167c0
ip = 0x40d0e8, sp = 0x7f826167e0
ip = 0x419560, sp = 0x7f82616840
ip = 0x415fc4, sp = 0x7f826168b0
ip = 0x7fa51bee34, sp = 0x7f826169e0
ip = 0x7fa51bee34, sp = 0x7f826169e0
[!^*] Kernel object addr 0x7f85b4b000
[| |] Enter in backtrace extractor module...
dock.begin_addr 0x7f85b4b000
ip = 0x40b950, sp = 0x7f81e14520
ip = 0x40b950, sp = 0x7f81e145a0
ip = 0x40a3a8, sp = 0x7f81e167c0
ip = 0x40d0e8, sp = 0x7f81e167e0
ip = 0x419560, sp = 0x7f81e16840
ip = 0x415fc4, sp = 0x7f81e168b0
ip = 0x7fa51bee34, sp = 0x7f81e169e0
ip = 0x7fa51bee34, sp = 0x7f81e169e0
[!^*] Kernel object addr 0x7f85b4c000
[| |] Enter in backtrace extractor module...
dock.begin_addr 0x7f85b4c000
ip = 0x40b950, sp = 0x7f81614520
ip = 0x40b950, sp = 0x7f816145a0
ip = 0x40a3a8, sp = 0x7f816167c0
ip = 0x40d0e8, sp = 0x7f816167e0
ip = 0x419560, sp = 0x7f81616840
ip = 0x415fc4, sp = 0x7f816168b0
ip = 0x7fa51bee34, sp = 0x7f816169e0
ip = 0x7fa51bee34, sp = 0x7f816169e0
[!^*] Kernel object addr 0x7f85b4d000
[| |] Enter in backtrace extractor module...
dock.begin_addr 0x7f85b4d000
ip = 0x40b950, sp = 0x7f80e14520
ip = 0x40b950, sp = 0x7f80e145a0
ip = 0x40a3a8, sp = 0x7f80e167c0
ip = 0x40d0e8, sp = 0x7f80e167e0
ip = 0x419560, sp = 0x7f80e16840
ip = 0x415fc4, sp = 0x7f80e168b0
ip = 0x7fa51bee34, sp = 0x7f80e169e0
ip = 0x7fa51bee34, sp = 0x7f80e169e0
[!^*] Kernel object addr 0x7f85b4e000
[| |] Enter in backtrace extractor module...
dock.begin_addr 0x7f85b4e000
ip = 0x40b950, sp = 0x7f80614520
ip = 0x40b950, sp = 0x7f806145a0
ip = 0x40a3a8, sp = 0x7f806167c0
ip = 0x40d0e8, sp = 0x7f806167e0
ip = 0x419560, sp = 0x7f80616840
ip = 0x415fc4, sp = 0x7f806168b0
ip = 0x7fa51bee34, sp = 0x7f806169e0
ip = 0x7fa51bee34, sp = 0x7f806169e0
[!^*] Kernel object addr 0x7f85b4f000
[| |] Enter in backtrace extractor module...
dock.begin_addr 0x7f85b4f000
ip = 0x40b950, sp = 0x7f7fe14520
ip = 0x40b950, sp = 0x7f7fe145a0
ip = 0x40a3a8, sp = 0x7f7fe167c0
ip = 0x40d0e8, sp = 0x7f7fe167e0
ip = 0x419560, sp = 0x7f7fe16840
ip = 0x415fc4, sp = 0x7f7fe168b0
ip = 0x7fa51bee34, sp = 0x7f7fe169e0
ip = 0x7fa51bee34, sp = 0x7f7fe169e0
[!^*] Kernel object addr 0x7f85b50000
[| |] Enter in backtrace extractor module...
dock.begin_addr 0x7f85b50000
ip = 0x40b950, sp = 0x7f83614520
ip = 0x40b950, sp = 0x7f836145a0
ip = 0x40a3a8, sp = 0x7f836167c0
ip = 0x40d0e8, sp = 0x7f836167e0
ip = 0x419560, sp = 0x7f83616840
ip = 0x415fc4, sp = 0x7f836168b0
ip = 0x7fa51bee34, sp = 0x7f836169e0
ip = 0x7fa51bee34, sp = 0x7f836169e0
[!^*] Kernel object addr 0x7f85b51000
[| |] Enter in backtrace extractor module...
dock.begin_addr 0x7f85b51000
ip = 0x40b950, sp = 0x7f82e14520
ip = 0x40b950, sp = 0x7f82e145a0
ip = 0x40a3a8, sp = 0x7f82e167c0
ip = 0x40d0e8, sp = 0x7f82e167e0
ip = 0x419560, sp = 0x7f82e16840
ip = 0x415fc4, sp = 0x7f82e168b0
ip = 0x7fa51bee34, sp = 0x7f82e169e0
ip = 0x7fa51bee34, sp = 0x7f82e169e0
[!^*] Kernel object addr 0x7f85b52000
[| |] Enter in backtrace extractor module...
dock.begin_addr 0x7f85b52000
ip = 0x40b950, sp = 0x7f82614520
ip = 0x40b950, sp = 0x7f826145a0
ip = 0x40a3a8, sp = 0x7f826167c0
ip = 0x40d0e8, sp = 0x7f826167e0
ip = 0x419560, sp = 0x7f82616840
ip = 0x415fc4, sp = 0x7f826168b0
ip = 0x7fa51bee34, sp = 0x7f826169e0
ip = 0x7fa51bee34, sp = 0x7f826169e0
[!^*] Kernel object addr 0x7f85b53000
[| |] Enter in backtrace extractor module...
dock.begin_addr 0x7f85b53000
ip = 0x40b950, sp = 0x7f81e14520
ip = 0x40b950, sp = 0x7f81e145a0
ip = 0x40a3a8, sp = 0x7f81e167c0
ip = 0x40d0e8, sp = 0x7f81e167e0
ip = 0x419560, sp = 0x7f81e16840
ip = 0x415fc4, sp = 0x7f81e168b0
ip = 0x7fa51bee34, sp = 0x7f81e169e0
ip = 0x7fa51bee34, sp = 0x7f81e169e0
Mounting...
[!^*] Kernel object addr 0x7f85b58000
[| |] Enter in backtrace extractor module...
dock.begin_addr 0x7f85b58000
ip = 0x40b950, sp = 0x7f81614520
ip = 0x40b950, sp = 0x7f816145a0
ip = 0x40a3a8, sp = 0x7f816167c0
ip = 0x40d0e8, sp = 0x7f816167e0
ip = 0x419560, sp = 0x7f81616840
ip = 0x415fc4, sp = 0x7f816168b0
ip = 0x7fa51bee34, sp = 0x7f816169e0
ip = 0x7fa51bee34, sp = 0x7f816169e0
[!^*] Kernel object addr 0x7f85b56000
[| |] Enter in backtrace extractor module...
dock.begin_addr 0x7f85b56000
ip = 0x40b950, sp = 0x7f7fe14520
ip = 0x40b950, sp = 0x7f7fe145a0
ip = 0x40a3a8, sp = 0x7f7fe167c0
ip = 0x40d0e8, sp = 0x7f7fe167e0
ip = 0x419560, sp = 0x7f7fe16840
ip = 0x415fc4, sp = 0x7f7fe168b0
ip = 0x7fa51bee34, sp = 0x7f7fe169e0
ip = 0x7fa51bee34, sp = 0x7f7fe169e0
#  
[  431.946290] reboot: Restarting system

  # KVM session ended normally.
root@linaro-alip:~/DADE/scripts# exit

Script done on Tue 06 Mar 2018 10:55:19 AM UTC
